<?xml version="1.0" encoding="utf-8"?>
<!--/742231/1137165/2.50/10/4/Undefined or Miscellaneous/-->
<!DOCTYPE curve SYSTEM "eagle.dtd">
<eagle version="7.7.0">
<drawing>
<settings>
<setting alwaysvectorfont="no"/>
<setting verticaltext="up"/>
</settings>
<grid distance="0.1" unitdist="inch" unit="inch" style="lines" multiple="1" display="no" altdistance="0.01" altunitdist="inch" altunit="inch"/>
<layers>
<layer number="1" name="Top" color="4" fill="1" visible="yes" active="yes"/>
<layer number="16" name="Bottom" color="1" fill="1" visible="yes" active="yes"/>
<layer number="17" name="Pads" color="2" fill="1" visible="yes" active="yes"/>
<layer number="18" name="Vias" color="2" fill="1" visible="yes" active="yes"/>
<layer number="19" name="Unrouted" color="6" fill="1" visible="yes" active="yes"/>
<layer number="20" name="Dimension" color="15" fill="1" visible="yes" active="yes"/>
<layer number="21" name="tPlace" color="7" fill="1" visible="yes" active="yes"/>
<layer number="22" name="bPlace" color="7" fill="1" visible="yes" active="yes"/>
<layer number="23" name="tOrigins" color="15" fill="1" visible="yes" active="yes"/>
<layer number="24" name="bOrigins" color="15" fill="1" visible="yes" active="yes"/>
<layer number="25" name="tNames" color="7" fill="1" visible="yes" active="yes"/>
<layer number="26" name="bNames" color="7" fill="1" visible="yes" active="yes"/>
<layer number="27" name="tValues" color="7" fill="1" visible="yes" active="yes"/>
<layer number="28" name="bValues" color="7" fill="1" visible="yes" active="yes"/>
<layer number="29" name="tStop" color="7" fill="3" visible="no" active="yes"/>
<layer number="30" name="bStop" color="7" fill="6" visible="no" active="yes"/>
<layer number="31" name="tCream" color="7" fill="4" visible="no" active="yes"/>
<layer number="32" name="bCream" color="7" fill="5" visible="no" active="yes"/>
<layer number="33" name="tFinish" color="6" fill="3" visible="no" active="yes"/>
<layer number="34" name="bFinish" color="6" fill="6" visible="no" active="yes"/>
<layer number="35" name="tGlue" color="7" fill="4" visible="no" active="yes"/>
<layer number="36" name="bGlue" color="7" fill="5" visible="no" active="yes"/>
<layer number="37" name="tTest" color="7" fill="1" visible="no" active="yes"/>
<layer number="38" name="bTest" color="7" fill="1" visible="no" active="yes"/>
<layer number="39" name="tKeepout" color="4" fill="11" visible="yes" active="yes"/>
<layer number="40" name="bKeepout" color="1" fill="11" visible="yes" active="yes"/>
<layer number="41" name="tRestrict" color="4" fill="10" visible="yes" active="yes"/>
<layer number="42" name="bRestrict" color="1" fill="10" visible="yes" active="yes"/>
<layer number="43" name="vRestrict" color="2" fill="10" visible="yes" active="yes"/>
<layer number="44" name="Drills" color="7" fill="1" visible="no" active="yes"/>
<layer number="45" name="Holes" color="7" fill="1" visible="no" active="yes"/>
<layer number="46" name="Milling" color="3" fill="1" visible="no" active="yes"/>
<layer number="47" name="Measures" color="7" fill="1" visible="no" active="yes"/>
<layer number="48" name="Document" color="7" fill="1" visible="yes" active="yes"/>
<layer number="49" name="Reference" color="7" fill="1" visible="yes" active="yes"/>
<layer number="51" name="tDocu" color="7" fill="1" visible="yes" active="yes"/>
<layer number="52" name="bDocu" color="7" fill="1" visible="yes" active="yes"/>
<layer number="90" name="Modules" color="5" fill="1" visible="yes" active="yes"/>
<layer number="91" name="Nets" color="2" fill="1" visible="yes" active="yes"/>
<layer number="92" name="Busses" color="1" fill="1" visible="yes" active="yes"/>
<layer number="93" name="Pins" color="2" fill="1" visible="no" active="yes"/>
<layer number="94" name="Symbols" color="4" fill="1" visible="yes" active="yes"/>
<layer number="95" name="Names" color="7" fill="1" visible="yes" active="yes"/>
<layer number="96" name="Values" color="7" fill="1" visible="yes" active="yes"/>
<layer number="97" name="Info" color="7" fill="1" visible="yes" active="yes"/>
<layer number="98" name="Guide" color="6" fill="1" visible="yes" active="yes"/>
</layers>
<library>
<description>&lt;Alps 15 Pulse Incremental Mechanical Rotary Encoder with a 3.5 (Inner Shaft) mm, 6 (Outer Shaft) mm&lt;/b&gt;&lt;p&gt;
&lt;author&gt;Created by SamacSys&lt;/author&gt;</description>
<packages>
<package name="EC11E0B2LB01">
<description>&lt;b&gt;EC11E0B2LB01-1&lt;/b&gt;&lt;br&gt;
</description>
<pad name="A1" x="0.000" y="0.000" drill="1.1" diameter="1.650"/>
<pad name="A2" x="0.000" y="17.000" drill="1.1" diameter="1.650"/>
<pad name="B1" x="5.000" y="0.000" drill="1.1" diameter="1.650"/>
<pad name="B2" x="5.000" y="17.000" drill="1.1" diameter="1.650"/>
<pad name="C1" x="2.500" y="0.000" drill="1.1" diameter="1.650"/>
<pad name="C2" x="2.500" y="17.000" drill="1.1" diameter="1.650"/>
<pad name="D1" x="0.000" y="14.500" drill="1.1" diameter="1.650"/>
<pad name="E1" x="5.000" y="14.500" drill="1.1" diameter="1.650"/>
<pad name="MH1" x="-3.000" y="7.500" drill="3.14" diameter="4.710"/>
<pad name="MH2" x="8.000" y="7.500" drill="3.14" diameter="4.710"/>
<text x="2.500" y="8.137" align="center" size="1.27" layer="25" rot="R0" >&gt;NAME</text>
<text x="2.500" y="8.137" align="center" size="1.27" layer="27" rot="R0" >&gt;VALUE</text>
<wire x1="-3.35" y1="1.5" x2="8.35" y2="1.5" width="0.2" layer="51"/>
<wire x1="8.35" y1="1.5" x2="8.35" y2="13.5" width="0.2" layer="51"/>
<wire x1="8.35" y1="13.5" x2="-3.35" y2="13.5" width="0.2" layer="51"/>
<wire x1="-3.35" y1="13.5" x2="-3.35" y2="1.5" width="0.2" layer="51"/>
<wire x1="-3.35" y1="4.5" x2="-3.35" y2="4.5" width="0.1" layer="21"/>
<wire x1="-3.35" y1="4.5" x2="-3.35" y2="1.5" width="0.1" layer="21"/>
<wire x1="-3.35" y1="1.5" x2="-3.35" y2="1.5" width="0.1" layer="21"/>
<wire x1="-3.35" y1="1.5" x2="-3.35" y2="4.5" width="0.1" layer="21"/>
<wire x1="-3.35" y1="1.5" x2="8.35" y2="1.5" width="0.1" layer="21"/>
<wire x1="8.35" y1="1.5" x2="8.35" y2="1.5" width="0.1" layer="21"/>
<wire x1="8.35" y1="1.5" x2="-3.35" y2="1.5" width="0.1" layer="21"/>
<wire x1="-3.35" y1="1.5" x2="-3.35" y2="1.5" width="0.1" layer="21"/>
<wire x1="8.35" y1="1.5" x2="8.35" y2="1.5" width="0.1" layer="21"/>
<wire x1="8.35" y1="1.5" x2="8.35" y2="4.5" width="0.1" layer="21"/>
<wire x1="8.35" y1="4.5" x2="8.35" y2="4.5" width="0.1" layer="21"/>
<wire x1="8.35" y1="4.5" x2="8.35" y2="1.5" width="0.1" layer="21"/>
<wire x1="8.35" y1="10.5" x2="8.35" y2="10.5" width="0.1" layer="21"/>
<wire x1="8.35" y1="10.5" x2="8.35" y2="13.5" width="0.1" layer="21"/>
<wire x1="8.35" y1="13.5" x2="8.35" y2="13.5" width="0.1" layer="21"/>
<wire x1="8.35" y1="13.5" x2="8.35" y2="10.5" width="0.1" layer="21"/>
<wire x1="8.35" y1="13.5" x2="6" y2="13.5" width="0.1" layer="21"/>
<wire x1="6" y1="13.5" x2="6" y2="13.5" width="0.1" layer="21"/>
<wire x1="6" y1="13.5" x2="8.35" y2="13.5" width="0.1" layer="21"/>
<wire x1="8.35" y1="13.5" x2="8.35" y2="13.5" width="0.1" layer="21"/>
<wire x1="1" y1="13.5" x2="4" y2="13.5" width="0.1" layer="21"/>
<wire x1="4" y1="13.5" x2="4" y2="13.5" width="0.1" layer="21"/>
<wire x1="4" y1="13.5" x2="1" y2="13.5" width="0.1" layer="21"/>
<wire x1="1" y1="13.5" x2="1" y2="13.5" width="0.1" layer="21"/>
<wire x1="-1" y1="13.5" x2="-3.35" y2="13.5" width="0.1" layer="21"/>
<wire x1="-3.35" y1="13.5" x2="-3.35" y2="13.5" width="0.1" layer="21"/>
<wire x1="-3.35" y1="13.5" x2="-1" y2="13.5" width="0.1" layer="21"/>
<wire x1="-1" y1="13.5" x2="-1" y2="13.5" width="0.1" layer="21"/>
<wire x1="-3.35" y1="13.5" x2="-3.35" y2="13.5" width="0.1" layer="21"/>
<wire x1="-3.35" y1="13.5" x2="-3.35" y2="10.5" width="0.1" layer="21"/>
<wire x1="-3.35" y1="10.5" x2="-3.35" y2="10.5" width="0.1" layer="21"/>
<wire x1="-3.35" y1="10.5" x2="-3.35" y2="13.5" width="0.1" layer="21"/>
<wire x1="-6.355" y1="18.825" x2="11.355" y2="18.825" width="0.1" layer="51"/>
<wire x1="11.355" y1="18.825" x2="11.355" y2="-2.55" width="0.1" layer="51"/>
<wire x1="11.355" y1="-2.55" x2="-6.355" y2="-2.55" width="0.1" layer="51"/>
<wire x1="-6.355" y1="-2.55" x2="-6.355" y2="18.825" width="0.1" layer="51"/>
<wire x1="-0.1" y1="-1.5" x2="-0.1" y2="-1.5" width="0.2" layer="21"/>
<wire x1="-0.100" y1="-1.500" x2="0.000" y2="-1.500" width="0.2" layer="21" curve="180.0"/>
<wire x1="0" y1="-1.5" x2="0" y2="-1.5" width="0.2" layer="21"/>
<wire x1="0.000" y1="-1.500" x2="-0.100" y2="-1.500" width="0.2" layer="21" curve="180.0"/>
<wire x1="-0.1" y1="-1.5" x2="-0.1" y2="-1.5" width="0.2" layer="21"/>
<wire x1="-0.100" y1="-1.500" x2="0.000" y2="-1.500" width="0.2" layer="21" curve="180.0"/>
</package>
</packages>
<symbols>
<symbol name="EC11E0B2LB01">
<wire x1="5.08" y1="2.54" x2="30.48" y2="2.54" width="0.254" layer="94"/>
<wire x1="30.48" y1="-12.7" x2="30.48" y2="2.54" width="0.254" layer="94"/>
<wire x1="30.48" y1="-12.7" x2="5.08" y2="-12.7" width="0.254" layer="94"/>
<wire x1="5.08" y1="2.54" x2="5.08" y2="-12.7" width="0.254" layer="94"/>
<text x="31.75" y="7.62" align="center-left" size="1.778" layer="95">&gt;NAME</text>
<text x="31.75" y="5.08" align="center-left" size="1.778" layer="96">&gt;VALUE</text>
<pin name="CW_1" x="0" y="0" length="middle" direction="io" rot="R0"/>
<pin name="CW_2" x="0" y="-2.54" length="middle" direction="io" rot="R0"/>
<pin name="CCW_1" x="0" y="-5.08" length="middle" direction="io" rot="R0"/>
<pin name="CCW_2" x="0" y="-7.62" length="middle" direction="io" rot="R0"/>
<pin name="WIPER_1" x="0" y="-10.16" length="middle" direction="io" rot="R0"/>
<pin name="WIPER_2" x="35.56" y="0" length="middle" direction="io" rot="R180"/>
<pin name="COM" x="35.56" y="-2.54" length="middle" direction="io" rot="R180"/>
<pin name="NO" x="35.56" y="-5.08" length="middle" direction="io" rot="R180"/>
<pin name="MH1" x="35.56" y="-7.62" length="middle" direction="io" rot="R180"/>
<pin name="MH2" x="35.56" y="-10.16" length="middle" direction="io" rot="R180"/>
</symbol>
</symbols>
<devicesets>
<deviceset name="EC11E0B2LB01" prefix="U">
<description>&lt;b&gt;Alps 15 Pulse Incremental Mechanical Rotary Encoder with a 3.5 (Inner Shaft) mm, 6 (Outer Shaft) mm&lt;/b&gt;&lt;p&gt;
Source: &lt;a href="https://tech.alpsalpine.com/e/delete/pdf/encoder/incremental/ec11/ec11.pdf"&gt; Datasheet &lt;/a&gt;</description>
<gates>
<gate name="G$1" symbol="EC11E0B2LB01" x="0" y="0"/>
</gates>
<devices>
<device name="" package="EC11E0B2LB01">
<connects>
<connect gate="G$1" pin="CW_1" pad="A1"/>
<connect gate="G$1" pin="CW_2" pad="A2"/>
<connect gate="G$1" pin="CCW_1" pad="B1"/>
<connect gate="G$1" pin="CCW_2" pad="B2"/>
<connect gate="G$1" pin="WIPER_1" pad="C1"/>
<connect gate="G$1" pin="WIPER_2" pad="C2"/>
<connect gate="G$1" pin="COM" pad="D1"/>
<connect gate="G$1" pin="NO" pad="E1"/>
<connect gate="G$1" pin="MH1" pad="MH1"/>
<connect gate="G$1" pin="MH2" pad="MH2"/>
</connects>
<technologies>
<technology name="">
<attribute name="Mouser_Part_Number" value="688-EC11E0B2LB01" constant="no"/>
<attribute name="Mouser_Price-Stock" value="https://www.mouser.co.uk/ProductDetail/Alps-Alpine/EC11E0B2LB01?qs=6EGMNY9ZYDSkJtpU%252BjXS0g%3D%3D" constant="no"/>
<attribute name="Manufacturer_Name" value="ALPS Electric" constant="no"/>
<attribute name="Manufacturer_Part_Number" value="EC11E0B2LB01" constant="no"/>
<attribute name="Description" value="Alps 15 Pulse Incremental Mechanical Rotary Encoder with a 3.5 (Inner Shaft) mm, 6 (Outer Shaft) mm" constant="no"/>
<attribute name="Height" value="mm" constant="no"/>
</technology>
</technologies>
</device>
</devices>
</deviceset>
</devicesets>
</library>
</drawing>
</eagle>
