(module DIP-24__300_pads_70_10 (layer F.Cu) (tedit 557ED08D)
  (descr "24 pins DIL package, round pads")
  (tags DIL)
  (fp_text reference U6 (at -8.89 -1.27) (layer F.SilkS)
    (effects (font (size 1 1) (thickness 0.15)))
  )
  (fp_text value MAX395 (at 6.35 1.27) (layer F.Fab)
    (effects (font (size 1 1) (thickness 0.15)))
  )
  (fp_line (start -16.51 -1.27) (end -15.24 -1.27) (layer F.SilkS) (width 0.15))
  (fp_line (start -15.24 -1.27) (end -15.24 1.27) (layer F.SilkS) (width 0.15))
  (fp_line (start -15.24 1.27) (end -16.51 1.27) (layer F.SilkS) (width 0.15))
  (fp_line (start -16.51 1.27) (end -16.51 1.27) (layer F.SilkS) (width 0.15))
  (fp_line (start -16.51 -2.54) (end 16.51 -2.54) (layer F.SilkS) (width 0.15))
  (fp_line (start 16.51 -2.54) (end 16.51 2.54) (layer F.SilkS) (width 0.15))
  (fp_line (start 16.51 2.54) (end -16.51 2.54) (layer F.SilkS) (width 0.15))
  (fp_line (start -16.51 2.54) (end -16.51 -2.54) (layer F.SilkS) (width 0.15))
  (pad 1 thru_hole rect (at -13.97 3.81) (size 1.778 1.778) (drill 0.762) (layers *.Cu *.Mask F.SilkS)
    (clearance 0.254))
  (pad 2 thru_hole circle (at -11.43 3.81) (size 1.778 1.778) (drill 0.762) (layers *.Cu *.Mask F.SilkS)
    (clearance 0.254))
  (pad 3 thru_hole circle (at -8.89 3.81) (size 1.778 1.778) (drill 0.762) (layers *.Cu *.Mask F.SilkS)
    (clearance 0.254))
  (pad 4 thru_hole circle (at -6.35 3.81) (size 1.778 1.778) (drill 0.762) (layers *.Cu *.Mask F.SilkS)
    (clearance 0.254))
  (pad 5 thru_hole circle (at -3.81 3.81) (size 1.778 1.778) (drill 0.762) (layers *.Cu *.Mask F.SilkS)
    (clearance 0.254))
  (pad 6 thru_hole circle (at -1.27 3.81) (size 1.778 1.778) (drill 0.762) (layers *.Cu *.Mask F.SilkS)
    (clearance 0.254))
  (pad 7 thru_hole circle (at 1.27 3.81) (size 1.778 1.778) (drill 0.762) (layers *.Cu *.Mask F.SilkS)
    (clearance 0.254))
  (pad 8 thru_hole circle (at 3.81 3.81) (size 1.778 1.778) (drill 0.762) (layers *.Cu *.Mask F.SilkS)
    (clearance 0.254))
  (pad 9 thru_hole circle (at 6.35 3.81) (size 1.778 1.778) (drill 0.762) (layers *.Cu *.Mask F.SilkS)
    (clearance 0.254))
  (pad 10 thru_hole circle (at 8.89 3.81) (size 1.778 1.778) (drill 0.762) (layers *.Cu *.Mask F.SilkS)
    (clearance 0.254))
  (pad 11 thru_hole circle (at 11.43 3.81) (size 1.778 1.778) (drill 0.762) (layers *.Cu *.Mask F.SilkS)
    (clearance 0.254))
  (pad 12 thru_hole circle (at 13.97 3.81) (size 1.778 1.778) (drill 0.762) (layers *.Cu *.Mask F.SilkS)
    (clearance 0.254))
  (pad 13 thru_hole circle (at 13.97 -3.81) (size 1.778 1.778) (drill 0.762) (layers *.Cu *.Mask F.SilkS)
    (clearance 0.254))
  (pad 14 thru_hole circle (at 11.43 -3.81) (size 1.778 1.778) (drill 0.762) (layers *.Cu *.Mask F.SilkS)
    (clearance 0.254))
  (pad 15 thru_hole circle (at 8.89 -3.81) (size 1.778 1.778) (drill 0.762) (layers *.Cu *.Mask F.SilkS)
    (clearance 0.254))
  (pad 16 thru_hole circle (at 6.35 -3.81) (size 1.778 1.778) (drill 0.762) (layers *.Cu *.Mask F.SilkS)
    (clearance 0.254))
  (pad 17 thru_hole circle (at 3.81 -3.81) (size 1.778 1.778) (drill 0.762) (layers *.Cu *.Mask F.SilkS)
    (clearance 0.254))
  (pad 18 thru_hole circle (at 1.27 -3.81) (size 1.778 1.778) (drill 0.762) (layers *.Cu *.Mask F.SilkS)
    (clearance 0.254))
  (pad 19 thru_hole circle (at -1.27 -3.81) (size 1.778 1.778) (drill 0.762) (layers *.Cu *.Mask F.SilkS)
    (clearance 0.254))
  (pad 20 thru_hole circle (at -3.81 -3.81) (size 1.778 1.778) (drill 0.762) (layers *.Cu *.Mask F.SilkS)
    (clearance 0.254))
  (pad 21 thru_hole circle (at -6.35 -3.81) (size 1.778 1.778) (drill 0.762) (layers *.Cu *.Mask F.SilkS)
    (clearance 0.254))
  (pad 22 thru_hole circle (at -8.89 -3.81) (size 1.778 1.778) (drill 0.762) (layers *.Cu *.Mask F.SilkS)
    (clearance 0.254))
  (pad 23 thru_hole circle (at -11.43 -3.81) (size 1.778 1.778) (drill 0.762) (layers *.Cu *.Mask F.SilkS)
    (clearance 0.254))
  (pad 24 thru_hole circle (at -13.97 -3.81) (size 1.778 1.778) (drill 0.762) (layers *.Cu *.Mask F.SilkS)
    (clearance 0.254))
  (model Sockets_DIP.3dshapes/DIP-24__300.wrl
    (at (xyz 0 0 0))
    (scale (xyz 1 1 1))
    (rotate (xyz 0 0 0))
  )
)
