(module Vactrol (layer F.Cu) (tedit 5566D529)
  (descr "Perkins LED-LDR")
  (tags PHOTORESISTOR)
  (fp_text reference REF** (at 0 -2.5 180) (layer F.SilkS)
    (effects (font (size 1 1) (thickness 0.15)))
  )
  (fp_text value VACTROL (at 0 3) (layer F.Fab)
    (effects (font (size 1 1) (thickness 0.15)))
  )
  (fp_line (start -5 -1.5) (end -7.5 -1.5) (layer F.SilkS) (width 0.15))
  (fp_line (start -5 1.5) (end -7.5 1.5) (layer F.SilkS) (width 0.15))
  (fp_line (start 5 -2.5) (end 7.5 -2.5) (layer F.SilkS) (width 0.15))
  (fp_line (start 5 2.5) (end 7.5 2.5) (layer F.SilkS) (width 0.15))
  (fp_line (start -5 -5) (end 5 -5) (layer F.SilkS) (width 0.15))
  (fp_line (start 5 -5) (end 5 5) (layer F.SilkS) (width 0.15))
  (fp_line (start 5 5) (end -5 5) (layer F.SilkS) (width 0.15))
  (fp_line (start -5 5) (end -5 -5) (layer F.SilkS) (width 0.15))
  (fp_text user + (at -4 1.5) (layer F.SilkS)
    (effects (font (size 1 1) (thickness 0.15)))
  )
  (pad 1 thru_hole rect (at -7.5 -1.5) (size 2.286 1.5748) (drill 0.8128) (layers *.Cu *.Mask F.SilkS))
  (pad 2 thru_hole oval (at -7.5 1.5) (size 2.286 1.5748) (drill 0.8128) (layers *.Cu *.Mask F.SilkS))
  (pad 3 thru_hole oval (at 7.5 -2.5) (size 2.286 1.5748) (drill 0.8128) (layers *.Cu *.Mask F.SilkS))
  (pad 4 thru_hole oval (at 7.5 2.5) (size 2.286 1.5748) (drill 0.8128) (layers *.Cu *.Mask F.SilkS))
  (model Divers.3dshapes/OPTORESISTOR_NSL-32.wrl
    (at (xyz 0 0 0))
    (scale (xyz 1 1 1))
    (rotate (xyz 0 0 0))
  )
)
