(module AD75019JPZ (layer F.Cu)
  (fp_text reference REF** (at 0 0) (layer F.SilkS)
    (effects (font (size 1 1) (thickness .15)))
  )
  (fp_text value P_44A (at 0 0) (layer F.SilkS)
    (effects (font (size 1 1) (thickness .15)))
  )
  (fp_text user "Copyright 2016 Accelerated Designs. All rights reserved." (at 0 0) (layer Cmts.User)
    (effects (font (size .127 .127) (thickness .002)))
  )
  (fp_line (start -8.3312 -7.112) (end -7.112 -8.3312) (layer F.SilkS) (width .1524))
  (fp_line (start -7.112 8.3312) (end -8.3312 7.112) (layer F.SilkS) (width .1524))
  (fp_line (start 7.112 8.3312) (end 8.3312 7.112) (layer F.SilkS) (width .1524))
  (fp_line (start 7.112 -8.3312) (end 8.3312 -7.112) (layer F.SilkS) (width .1524))
  (fp_line (start -8.3312 -7.112) (end -7.112 -8.3312) (layer Dwgs.User) (width .1524))
  (fp_line (start -7.112 8.3312) (end -8.3312 7.112) (layer Dwgs.User) (width .1524))
  (fp_line (start 7.112 8.3312) (end 8.3312 7.112) (layer Dwgs.User) (width .1524))
  (fp_line (start 7.112 -8.3312) (end 8.3312 -7.112) (layer Dwgs.User) (width .1524))
  (fp_line (start -6.6167 -8.3312) (end -6.0833 -8.3312) (layer Dwgs.User) (width .1524))
  (fp_line (start -6.0833 -8.3312) (end -6.0833 -8.8265) (layer Dwgs.User) (width .1524))
  (fp_line (start -6.0833 -8.8265) (end -6.6167 -8.8265) (layer Dwgs.User) (width .1524))
  (fp_line (start -6.6167 -8.8265) (end -6.6167 -8.3312) (layer Dwgs.User) (width .1524))
  (fp_line (start -5.3467 -8.3312) (end -4.8133 -8.3312) (layer Dwgs.User) (width .1524))
  (fp_line (start -4.8133 -8.3312) (end -4.8133 -8.8265) (layer Dwgs.User) (width .1524))
  (fp_line (start -4.8133 -8.8265) (end -5.3467 -8.8265) (layer Dwgs.User) (width .1524))
  (fp_line (start -5.3467 -8.8265) (end -5.3467 -8.3312) (layer Dwgs.User) (width .1524))
  (fp_line (start -4.0767 -8.3312) (end -3.5433 -8.3312) (layer Dwgs.User) (width .1524))
  (fp_line (start -3.5433 -8.3312) (end -3.5433 -8.8265) (layer Dwgs.User) (width .1524))
  (fp_line (start -3.5433 -8.8265) (end -4.0767 -8.8265) (layer Dwgs.User) (width .1524))
  (fp_line (start -4.0767 -8.8265) (end -4.0767 -8.3312) (layer Dwgs.User) (width .1524))
  (fp_line (start -2.8067 -8.3312) (end -2.2733 -8.3312) (layer Dwgs.User) (width .1524))
  (fp_line (start -2.2733 -8.3312) (end -2.2733 -8.8265) (layer Dwgs.User) (width .1524))
  (fp_line (start -2.2733 -8.8265) (end -2.8067 -8.8265) (layer Dwgs.User) (width .1524))
  (fp_line (start -2.8067 -8.8265) (end -2.8067 -8.3312) (layer Dwgs.User) (width .1524))
  (fp_line (start -1.5367 -8.3312) (end -1.0033 -8.3312) (layer Dwgs.User) (width .1524))
  (fp_line (start -1.0033 -8.3312) (end -1.0033 -8.8265) (layer Dwgs.User) (width .1524))
  (fp_line (start -1.0033 -8.8265) (end -1.5367 -8.8265) (layer Dwgs.User) (width .1524))
  (fp_line (start -1.5367 -8.8265) (end -1.5367 -8.3312) (layer Dwgs.User) (width .1524))
  (fp_line (start -.2667 -8.3312) (end .2667 -8.3312) (layer Dwgs.User) (width .1524))
  (fp_line (start .2667 -8.3312) (end .2667 -8.8265) (layer Dwgs.User) (width .1524))
  (fp_line (start .2667 -8.8265) (end -.2667 -8.8265) (layer Dwgs.User) (width .1524))
  (fp_line (start -.2667 -8.8265) (end -.2667 -8.3312) (layer Dwgs.User) (width .1524))
  (fp_line (start 1.0033 -8.3312) (end 1.5367 -8.3312) (layer Dwgs.User) (width .1524))
  (fp_line (start 1.5367 -8.3312) (end 1.5367 -8.8265) (layer Dwgs.User) (width .1524))
  (fp_line (start 1.5367 -8.8265) (end 1.0033 -8.8265) (layer Dwgs.User) (width .1524))
  (fp_line (start 1.0033 -8.8265) (end 1.0033 -8.3312) (layer Dwgs.User) (width .1524))
  (fp_line (start 2.2733 -8.3312) (end 2.8067 -8.3312) (layer Dwgs.User) (width .1524))
  (fp_line (start 2.8067 -8.3312) (end 2.8067 -8.8265) (layer Dwgs.User) (width .1524))
  (fp_line (start 2.8067 -8.8265) (end 2.2733 -8.8265) (layer Dwgs.User) (width .1524))
  (fp_line (start 2.2733 -8.8265) (end 2.2733 -8.3312) (layer Dwgs.User) (width .1524))
  (fp_line (start 3.5433 -8.3312) (end 4.0767 -8.3312) (layer Dwgs.User) (width .1524))
  (fp_line (start 4.0767 -8.3312) (end 4.0767 -8.8265) (layer Dwgs.User) (width .1524))
  (fp_line (start 4.0767 -8.8265) (end 3.5433 -8.8265) (layer Dwgs.User) (width .1524))
  (fp_line (start 3.5433 -8.8265) (end 3.5433 -8.3312) (layer Dwgs.User) (width .1524))
  (fp_line (start 4.8133 -8.3312) (end 5.3467 -8.3312) (layer Dwgs.User) (width .1524))
  (fp_line (start 5.3467 -8.3312) (end 5.3467 -8.8265) (layer Dwgs.User) (width .1524))
  (fp_line (start 5.3467 -8.8265) (end 4.8133 -8.8265) (layer Dwgs.User) (width .1524))
  (fp_line (start 4.8133 -8.8265) (end 4.8133 -8.3312) (layer Dwgs.User) (width .1524))
  (fp_line (start 6.0833 -8.3312) (end 6.6167 -8.3312) (layer Dwgs.User) (width .1524))
  (fp_line (start 6.6167 -8.3312) (end 6.6167 -8.8265) (layer Dwgs.User) (width .1524))
  (fp_line (start 6.6167 -8.8265) (end 6.0833 -8.8265) (layer Dwgs.User) (width .1524))
  (fp_line (start 6.0833 -8.8265) (end 6.0833 -8.3312) (layer Dwgs.User) (width .1524))
  (fp_line (start -8.3312 -6.0833) (end -8.3312 -6.6167) (layer Dwgs.User) (width .1524))
  (fp_line (start -8.3312 -6.6167) (end -8.8265 -6.6167) (layer Dwgs.User) (width .1524))
  (fp_line (start -8.8265 -6.6167) (end -8.8265 -6.0833) (layer Dwgs.User) (width .1524))
  (fp_line (start -8.8265 -6.0833) (end -8.3312 -6.0833) (layer Dwgs.User) (width .1524))
  (fp_line (start -8.3312 -4.8133) (end -8.3312 -5.3467) (layer Dwgs.User) (width .1524))
  (fp_line (start -8.3312 -5.3467) (end -8.8265 -5.3467) (layer Dwgs.User) (width .1524))
  (fp_line (start -8.8265 -5.3467) (end -8.8265 -4.8133) (layer Dwgs.User) (width .1524))
  (fp_line (start -8.8265 -4.8133) (end -8.3312 -4.8133) (layer Dwgs.User) (width .1524))
  (fp_line (start -8.3312 -3.5433) (end -8.3312 -4.0767) (layer Dwgs.User) (width .1524))
  (fp_line (start -8.3312 -4.0767) (end -8.8265 -4.0767) (layer Dwgs.User) (width .1524))
  (fp_line (start -8.8265 -4.0767) (end -8.8265 -3.5433) (layer Dwgs.User) (width .1524))
  (fp_line (start -8.8265 -3.5433) (end -8.3312 -3.5433) (layer Dwgs.User) (width .1524))
  (fp_line (start -8.3312 -2.2733) (end -8.3312 -2.8067) (layer Dwgs.User) (width .1524))
  (fp_line (start -8.3312 -2.8067) (end -8.8265 -2.8067) (layer Dwgs.User) (width .1524))
  (fp_line (start -8.8265 -2.8067) (end -8.8265 -2.2733) (layer Dwgs.User) (width .1524))
  (fp_line (start -8.8265 -2.2733) (end -8.3312 -2.2733) (layer Dwgs.User) (width .1524))
  (fp_line (start -8.3312 -1.0033) (end -8.3312 -1.5367) (layer Dwgs.User) (width .1524))
  (fp_line (start -8.3312 -1.5367) (end -8.8265 -1.5367) (layer Dwgs.User) (width .1524))
  (fp_line (start -8.8265 -1.5367) (end -8.8265 -1.0033) (layer Dwgs.User) (width .1524))
  (fp_line (start -8.8265 -1.0033) (end -8.3312 -1.0033) (layer Dwgs.User) (width .1524))
  (fp_line (start -8.3312 .2667) (end -8.3312 -.2667) (layer Dwgs.User) (width .1524))
  (fp_line (start -8.3312 -.2667) (end -8.8265 -.2667) (layer Dwgs.User) (width .1524))
  (fp_line (start -8.8265 -.2667) (end -8.8265 .2667) (layer Dwgs.User) (width .1524))
  (fp_line (start -8.8265 .2667) (end -8.3312 .2667) (layer Dwgs.User) (width .1524))
  (fp_line (start -8.3312 1.5367) (end -8.3312 1.0033) (layer Dwgs.User) (width .1524))
  (fp_line (start -8.3312 1.0033) (end -8.8265 1.0033) (layer Dwgs.User) (width .1524))
  (fp_line (start -8.8265 1.0033) (end -8.8265 1.5367) (layer Dwgs.User) (width .1524))
  (fp_line (start -8.8265 1.5367) (end -8.3312 1.5367) (layer Dwgs.User) (width .1524))
  (fp_line (start -8.3312 2.8067) (end -8.3312 2.2733) (layer Dwgs.User) (width .1524))
  (fp_line (start -8.3312 2.2733) (end -8.8265 2.2733) (layer Dwgs.User) (width .1524))
  (fp_line (start -8.8265 2.2733) (end -8.8265 2.8067) (layer Dwgs.User) (width .1524))
  (fp_line (start -8.8265 2.8067) (end -8.3312 2.8067) (layer Dwgs.User) (width .1524))
  (fp_line (start -8.3312 4.0767) (end -8.3312 3.5433) (layer Dwgs.User) (width .1524))
  (fp_line (start -8.3312 3.5433) (end -8.8265 3.5433) (layer Dwgs.User) (width .1524))
  (fp_line (start -8.8265 3.5433) (end -8.8265 4.0767) (layer Dwgs.User) (width .1524))
  (fp_line (start -8.8265 4.0767) (end -8.3312 4.0767) (layer Dwgs.User) (width .1524))
  (fp_line (start -8.3312 5.3467) (end -8.3312 4.8133) (layer Dwgs.User) (width .1524))
  (fp_line (start -8.3312 4.8133) (end -8.8265 4.8133) (layer Dwgs.User) (width .1524))
  (fp_line (start -8.8265 4.8133) (end -8.8265 5.3467) (layer Dwgs.User) (width .1524))
  (fp_line (start -8.8265 5.3467) (end -8.3312 5.3467) (layer Dwgs.User) (width .1524))
  (fp_line (start -8.3312 6.6167) (end -8.3312 6.0833) (layer Dwgs.User) (width .1524))
  (fp_line (start -8.3312 6.0833) (end -8.8265 6.0833) (layer Dwgs.User) (width .1524))
  (fp_line (start -8.8265 6.0833) (end -8.8265 6.6167) (layer Dwgs.User) (width .1524))
  (fp_line (start -8.8265 6.6167) (end -8.3312 6.6167) (layer Dwgs.User) (width .1524))
  (fp_line (start -6.0833 8.3312) (end -6.6167 8.3312) (layer Dwgs.User) (width .1524))
  (fp_line (start -6.6167 8.3312) (end -6.6167 8.8265) (layer Dwgs.User) (width .1524))
  (fp_line (start -6.6167 8.8265) (end -6.0833 8.8265) (layer Dwgs.User) (width .1524))
  (fp_line (start -6.0833 8.8265) (end -6.0833 8.3312) (layer Dwgs.User) (width .1524))
  (fp_line (start -4.8133 8.3312) (end -5.3467 8.3312) (layer Dwgs.User) (width .1524))
  (fp_line (start -5.3467 8.3312) (end -5.3467 8.8265) (layer Dwgs.User) (width .1524))
  (fp_line (start -5.3467 8.8265) (end -4.8133 8.8265) (layer Dwgs.User) (width .1524))
  (fp_line (start -4.8133 8.8265) (end -4.8133 8.3312) (layer Dwgs.User) (width .1524))
  (fp_line (start -3.5433 8.3312) (end -4.0767 8.3312) (layer Dwgs.User) (width .1524))
  (fp_line (start -4.0767 8.3312) (end -4.0767 8.8265) (layer Dwgs.User) (width .1524))
  (fp_line (start -4.0767 8.8265) (end -3.5433 8.8265) (layer Dwgs.User) (width .1524))
  (fp_line (start -3.5433 8.8265) (end -3.5433 8.3312) (layer Dwgs.User) (width .1524))
  (fp_line (start -2.2733 8.3312) (end -2.8067 8.3312) (layer Dwgs.User) (width .1524))
  (fp_line (start -2.8067 8.3312) (end -2.8067 8.8265) (layer Dwgs.User) (width .1524))
  (fp_line (start -2.8067 8.8265) (end -2.2733 8.8265) (layer Dwgs.User) (width .1524))
  (fp_line (start -2.2733 8.8265) (end -2.2733 8.3312) (layer Dwgs.User) (width .1524))
  (fp_line (start -1.0033 8.3312) (end -1.5367 8.3312) (layer Dwgs.User) (width .1524))
  (fp_line (start -1.5367 8.3312) (end -1.5367 8.8265) (layer Dwgs.User) (width .1524))
  (fp_line (start -1.5367 8.8265) (end -1.0033 8.8265) (layer Dwgs.User) (width .1524))
  (fp_line (start -1.0033 8.8265) (end -1.0033 8.3312) (layer Dwgs.User) (width .1524))
  (fp_line (start .2667 8.3312) (end -.2667 8.3312) (layer Dwgs.User) (width .1524))
  (fp_line (start -.2667 8.3312) (end -.2667 8.8265) (layer Dwgs.User) (width .1524))
  (fp_line (start -.2667 8.8265) (end .2667 8.8265) (layer Dwgs.User) (width .1524))
  (fp_line (start .2667 8.8265) (end .2667 8.3312) (layer Dwgs.User) (width .1524))
  (fp_line (start 1.5367 8.3312) (end 1.0033 8.3312) (layer Dwgs.User) (width .1524))
  (fp_line (start 1.0033 8.3312) (end 1.0033 8.8265) (layer Dwgs.User) (width .1524))
  (fp_line (start 1.0033 8.8265) (end 1.5367 8.8265) (layer Dwgs.User) (width .1524))
  (fp_line (start 1.5367 8.8265) (end 1.5367 8.3312) (layer Dwgs.User) (width .1524))
  (fp_line (start 2.8067 8.3312) (end 2.2733 8.3312) (layer Dwgs.User) (width .1524))
  (fp_line (start 2.2733 8.3312) (end 2.2733 8.8265) (layer Dwgs.User) (width .1524))
  (fp_line (start 2.2733 8.8265) (end 2.8067 8.8265) (layer Dwgs.User) (width .1524))
  (fp_line (start 2.8067 8.8265) (end 2.8067 8.3312) (layer Dwgs.User) (width .1524))
  (fp_line (start 4.0767 8.3312) (end 3.5433 8.3312) (layer Dwgs.User) (width .1524))
  (fp_line (start 3.5433 8.3312) (end 3.5433 8.8265) (layer Dwgs.User) (width .1524))
  (fp_line (start 3.5433 8.8265) (end 4.0767 8.8265) (layer Dwgs.User) (width .1524))
  (fp_line (start 4.0767 8.8265) (end 4.0767 8.3312) (layer Dwgs.User) (width .1524))
  (fp_line (start 5.3467 8.3312) (end 4.8133 8.3312) (layer Dwgs.User) (width .1524))
  (fp_line (start 4.8133 8.3312) (end 4.8133 8.8265) (layer Dwgs.User) (width .1524))
  (fp_line (start 4.8133 8.8265) (end 5.3467 8.8265) (layer Dwgs.User) (width .1524))
  (fp_line (start 5.3467 8.8265) (end 5.3467 8.3312) (layer Dwgs.User) (width .1524))
  (fp_line (start 6.6167 8.3312) (end 6.0833 8.3312) (layer Dwgs.User) (width .1524))
  (fp_line (start 6.0833 8.3312) (end 6.0833 8.8265) (layer Dwgs.User) (width .1524))
  (fp_line (start 6.0833 8.8265) (end 6.6167 8.8265) (layer Dwgs.User) (width .1524))
  (fp_line (start 6.6167 8.8265) (end 6.6167 8.3312) (layer Dwgs.User) (width .1524))
  (fp_line (start 8.3312 6.0833) (end 8.3312 6.6167) (layer Dwgs.User) (width .1524))
  (fp_line (start 8.3312 6.6167) (end 8.8265 6.6167) (layer Dwgs.User) (width .1524))
  (fp_line (start 8.8265 6.6167) (end 8.8265 6.0833) (layer Dwgs.User) (width .1524))
  (fp_line (start 8.8265 6.0833) (end 8.3312 6.0833) (layer Dwgs.User) (width .1524))
  (fp_line (start 8.3312 4.8133) (end 8.3312 5.3467) (layer Dwgs.User) (width .1524))
  (fp_line (start 8.3312 5.3467) (end 8.8265 5.3467) (layer Dwgs.User) (width .1524))
  (fp_line (start 8.8265 5.3467) (end 8.8265 4.8133) (layer Dwgs.User) (width .1524))
  (fp_line (start 8.8265 4.8133) (end 8.3312 4.8133) (layer Dwgs.User) (width .1524))
  (fp_line (start 8.3312 3.5433) (end 8.3312 4.0767) (layer Dwgs.User) (width .1524))
  (fp_line (start 8.3312 4.0767) (end 8.8265 4.0767) (layer Dwgs.User) (width .1524))
  (fp_line (start 8.8265 4.0767) (end 8.8265 3.5433) (layer Dwgs.User) (width .1524))
  (fp_line (start 8.8265 3.5433) (end 8.3312 3.5433) (layer Dwgs.User) (width .1524))
  (fp_line (start 8.3312 2.2733) (end 8.3312 2.8067) (layer Dwgs.User) (width .1524))
  (fp_line (start 8.3312 2.8067) (end 8.8265 2.8067) (layer Dwgs.User) (width .1524))
  (fp_line (start 8.8265 2.8067) (end 8.8265 2.2733) (layer Dwgs.User) (width .1524))
  (fp_line (start 8.8265 2.2733) (end 8.3312 2.2733) (layer Dwgs.User) (width .1524))
  (fp_line (start 8.3312 1.0033) (end 8.3312 1.5367) (layer Dwgs.User) (width .1524))
  (fp_line (start 8.3312 1.5367) (end 8.8265 1.5367) (layer Dwgs.User) (width .1524))
  (fp_line (start 8.8265 1.5367) (end 8.8265 1.0033) (layer Dwgs.User) (width .1524))
  (fp_line (start 8.8265 1.0033) (end 8.3312 1.0033) (layer Dwgs.User) (width .1524))
  (fp_line (start 8.3312 -.2667) (end 8.3312 .2667) (layer Dwgs.User) (width .1524))
  (fp_line (start 8.3312 .2667) (end 8.8265 .2667) (layer Dwgs.User) (width .1524))
  (fp_line (start 8.8265 .2667) (end 8.8265 -.2667) (layer Dwgs.User) (width .1524))
  (fp_line (start 8.8265 -.2667) (end 8.3312 -.2667) (layer Dwgs.User) (width .1524))
  (fp_line (start 8.3312 -1.5367) (end 8.3312 -1.0033) (layer Dwgs.User) (width .1524))
  (fp_line (start 8.3312 -1.0033) (end 8.8265 -1.0033) (layer Dwgs.User) (width .1524))
  (fp_line (start 8.8265 -1.0033) (end 8.8265 -1.5367) (layer Dwgs.User) (width .1524))
  (fp_line (start 8.8265 -1.5367) (end 8.3312 -1.5367) (layer Dwgs.User) (width .1524))
  (fp_line (start 8.3312 -2.8067) (end 8.3312 -2.2733) (layer Dwgs.User) (width .1524))
  (fp_line (start 8.3312 -2.2733) (end 8.8265 -2.2733) (layer Dwgs.User) (width .1524))
  (fp_line (start 8.8265 -2.2733) (end 8.8265 -2.8067) (layer Dwgs.User) (width .1524))
  (fp_line (start 8.8265 -2.8067) (end 8.3312 -2.8067) (layer Dwgs.User) (width .1524))
  (fp_line (start 8.3312 -4.0767) (end 8.3312 -3.5433) (layer Dwgs.User) (width .1524))
  (fp_line (start 8.3312 -3.5433) (end 8.8265 -3.5433) (layer Dwgs.User) (width .1524))
  (fp_line (start 8.8265 -3.5433) (end 8.8265 -4.0767) (layer Dwgs.User) (width .1524))
  (fp_line (start 8.8265 -4.0767) (end 8.3312 -4.0767) (layer Dwgs.User) (width .1524))
  (fp_line (start 8.3312 -5.3467) (end 8.3312 -4.8133) (layer Dwgs.User) (width .1524))
  (fp_line (start 8.3312 -4.8133) (end 8.8265 -4.8133) (layer Dwgs.User) (width .1524))
  (fp_line (start 8.8265 -4.8133) (end 8.8265 -5.3467) (layer Dwgs.User) (width .1524))
  (fp_line (start 8.8265 -5.3467) (end 8.3312 -5.3467) (layer Dwgs.User) (width .1524))
  (fp_line (start 8.3312 -6.6167) (end 8.3312 -6.0833) (layer Dwgs.User) (width .1524))
  (fp_line (start 8.3312 -6.0833) (end 8.8265 -6.0833) (layer Dwgs.User) (width .1524))
  (fp_line (start 8.8265 -6.0833) (end 8.8265 -6.6167) (layer Dwgs.User) (width .1524))
  (fp_line (start 8.8265 -6.6167) (end 8.3312 -6.6167) (layer Dwgs.User) (width .1524))
  (fp_line (start -8.3312 8.3312) (end -6.97484 8.3312) (layer F.SilkS) (width .1524))
  (fp_line (start 8.3312 8.3312) (end 8.3312 6.97484) (layer F.SilkS) (width .1524))
  (fp_line (start 8.3312 -8.3312) (end 6.97484 -8.3312) (layer F.SilkS) (width .1524))
  (fp_line (start -8.3312 -8.3312) (end -8.3312 -6.97484) (layer F.SilkS) (width .1524))
  (fp_line (start -8.3312 8.3312) (end 8.3312 8.3312) (layer Dwgs.User) (width .1524))
  (fp_line (start 8.3312 8.3312) (end 8.3312 -8.3312) (layer Dwgs.User) (width .1524))
  (fp_line (start 8.3312 -8.3312) (end -8.3312 -8.3312) (layer Dwgs.User) (width .1524))
  (fp_line (start -8.3312 -8.3312) (end -8.3312 8.3312) (layer Dwgs.User) (width .1524))
  (fp_line (start -6.97484 -8.3312) (end -8.3312 -8.3312) (layer F.SilkS) (width .1524))
  (fp_line (start -8.3312 6.97484) (end -8.3312 8.3312) (layer F.SilkS) (width .1524))
  (fp_line (start 6.97484 8.3312) (end 8.3312 8.3312) (layer F.SilkS) (width .1524))
  (fp_line (start 8.3312 -6.97484) (end 8.3312 -8.3312) (layer F.SilkS) (width .1524))
  (pad 1 smd rect (at 0 -8.0518) (size .5842 2.2606) (layers F.Cu F.Paste F.Mask))
  (pad 2 smd rect (at -1.27 -8.0518) (size .5842 2.2606) (layers F.Cu F.Paste F.Mask))
  (pad 3 smd rect (at -2.54 -8.0518) (size .5842 2.2606) (layers F.Cu F.Paste F.Mask))
  (pad 4 smd rect (at -3.81 -8.0518) (size .5842 2.2606) (layers F.Cu F.Paste F.Mask))
  (pad 5 smd rect (at -5.08 -8.0518) (size .5842 2.2606) (layers F.Cu F.Paste F.Mask))
  (pad 6 smd rect (at -6.35 -8.0518) (size .5842 2.2606) (layers F.Cu F.Paste F.Mask))
  (pad 7 smd rect (at -8.0518 -6.35 90) (size .5842 2.2606) (layers F.Cu F.Paste F.Mask))
  (pad 8 smd rect (at -8.0518 -5.08 90) (size .5842 2.2606) (layers F.Cu F.Paste F.Mask))
  (pad 9 smd rect (at -8.0518 -3.81 90) (size .5842 2.2606) (layers F.Cu F.Paste F.Mask))
  (pad 10 smd rect (at -8.0518 -2.54 90) (size .5842 2.2606) (layers F.Cu F.Paste F.Mask))
  (pad 11 smd rect (at -8.0518 -1.27 90) (size .5842 2.2606) (layers F.Cu F.Paste F.Mask))
  (pad 12 smd rect (at -8.0518 0 90) (size .5842 2.2606) (layers F.Cu F.Paste F.Mask))
  (pad 13 smd rect (at -8.0518 1.27 90) (size .5842 2.2606) (layers F.Cu F.Paste F.Mask))
  (pad 14 smd rect (at -8.0518 2.54 90) (size .5842 2.2606) (layers F.Cu F.Paste F.Mask))
  (pad 15 smd rect (at -8.0518 3.81 90) (size .5842 2.2606) (layers F.Cu F.Paste F.Mask))
  (pad 16 smd rect (at -8.0518 5.08 90) (size .5842 2.2606) (layers F.Cu F.Paste F.Mask))
  (pad 17 smd rect (at -8.0518 6.35 90) (size .5842 2.2606) (layers F.Cu F.Paste F.Mask))
  (pad 18 smd rect (at -6.35 8.0518) (size .5842 2.2606) (layers F.Cu F.Paste F.Mask))
  (pad 19 smd rect (at -5.08 8.0518) (size .5842 2.2606) (layers F.Cu F.Paste F.Mask))
  (pad 20 smd rect (at -3.81 8.0518) (size .5842 2.2606) (layers F.Cu F.Paste F.Mask))
  (pad 21 smd rect (at -2.54 8.0518) (size .5842 2.2606) (layers F.Cu F.Paste F.Mask))
  (pad 22 smd rect (at -1.27 8.0518) (size .5842 2.2606) (layers F.Cu F.Paste F.Mask))
  (pad 23 smd rect (at 0 8.0518) (size .5842 2.2606) (layers F.Cu F.Paste F.Mask))
  (pad 24 smd rect (at 1.27 8.0518) (size .5842 2.2606) (layers F.Cu F.Paste F.Mask))
  (pad 25 smd rect (at 2.54 8.0518) (size .5842 2.2606) (layers F.Cu F.Paste F.Mask))
  (pad 26 smd rect (at 3.81 8.0518) (size .5842 2.2606) (layers F.Cu F.Paste F.Mask))
  (pad 27 smd rect (at 5.08 8.0518) (size .5842 2.2606) (layers F.Cu F.Paste F.Mask))
  (pad 28 smd rect (at 6.35 8.0518) (size .5842 2.2606) (layers F.Cu F.Paste F.Mask))
  (pad 29 smd rect (at 8.0518 6.35 90) (size .5842 2.2606) (layers F.Cu F.Paste F.Mask))
  (pad 30 smd rect (at 8.0518 5.08 90) (size .5842 2.2606) (layers F.Cu F.Paste F.Mask))
  (pad 31 smd rect (at 8.0518 3.81 90) (size .5842 2.2606) (layers F.Cu F.Paste F.Mask))
  (pad 32 smd rect (at 8.0518 2.54 90) (size .5842 2.2606) (layers F.Cu F.Paste F.Mask))
  (pad 33 smd rect (at 8.0518 1.27 90) (size .5842 2.2606) (layers F.Cu F.Paste F.Mask))
  (pad 34 smd rect (at 8.0518 0 90) (size .5842 2.2606) (layers F.Cu F.Paste F.Mask))
  (pad 35 smd rect (at 8.0518 -1.27 90) (size .5842 2.2606) (layers F.Cu F.Paste F.Mask))
  (pad 36 smd rect (at 8.0518 -2.54 90) (size .5842 2.2606) (layers F.Cu F.Paste F.Mask))
  (pad 37 smd rect (at 8.0518 -3.81 90) (size .5842 2.2606) (layers F.Cu F.Paste F.Mask))
  (pad 38 smd rect (at 8.0518 -5.08 90) (size .5842 2.2606) (layers F.Cu F.Paste F.Mask))
  (pad 39 smd rect (at 8.0518 -6.35 90) (size .5842 2.2606) (layers F.Cu F.Paste F.Mask))
  (pad 40 smd rect (at 6.35 -8.0518) (size .5842 2.2606) (layers F.Cu F.Paste F.Mask))
  (pad 41 smd rect (at 5.08 -8.0518) (size .5842 2.2606) (layers F.Cu F.Paste F.Mask))
  (pad 42 smd rect (at 3.81 -8.0518) (size .5842 2.2606) (layers F.Cu F.Paste F.Mask))
  (pad 43 smd rect (at 2.54 -8.0518) (size .5842 2.2606) (layers F.Cu F.Paste F.Mask))
  (pad 44 smd rect (at 1.27 -8.0518) (size .5842 2.2606) (layers F.Cu F.Paste F.Mask))
)
