(module ADG1414BCPZ-REEL7 (layer F.Cu)
  (fp_text reference REF** (at 0 0) (layer F.SilkS)
    (effects (font (size 1 1) (thickness .15)))
  )
  (fp_text value CP_24_3 (at 0 0) (layer F.SilkS)
    (effects (font (size 1 1) (thickness .15)))
  )
  (fp_text user "Copyright 2016 Accelerated Designs. All rights reserved." (at 0 0) (layer Cmts.User)
    (effects (font (size .127 .127) (thickness .002)))
  )
  (fp_line (start -1.73514 -1.9939) (end -1.9939 -1.9939) (layer F.SilkS) (width .1524))
  (fp_line (start -1.9939 -.7239) (end -.7239 -1.9939) (layer Dwgs.User) (width .1524))
  (fp_line (start 1.0976 -1.9939) (end 1.4024 -1.9939) (layer Dwgs.User) (width .1524))
  (fp_line (start 1.4024 -1.9939) (end 1.4024 -1.9939) (layer Dwgs.User) (width .1524))
  (fp_line (start 1.4024 -1.9939) (end 1.0976 -1.9939) (layer Dwgs.User) (width .1524))
  (fp_line (start 1.0976 -1.9939) (end 1.0976 -1.9939) (layer Dwgs.User) (width .1524))
  (fp_line (start .5976 -1.9939) (end .9024 -1.9939) (layer Dwgs.User) (width .1524))
  (fp_line (start .9024 -1.9939) (end .9024 -1.9939) (layer Dwgs.User) (width .1524))
  (fp_line (start .9024 -1.9939) (end .5976 -1.9939) (layer Dwgs.User) (width .1524))
  (fp_line (start .5976 -1.9939) (end .5976 -1.9939) (layer Dwgs.User) (width .1524))
  (fp_line (start .0976 -1.9939) (end .4024 -1.9939) (layer Dwgs.User) (width .1524))
  (fp_line (start .4024 -1.9939) (end .4024 -1.9939) (layer Dwgs.User) (width .1524))
  (fp_line (start .4024 -1.9939) (end .0976 -1.9939) (layer Dwgs.User) (width .1524))
  (fp_line (start .0976 -1.9939) (end .0976 -1.9939) (layer Dwgs.User) (width .1524))
  (fp_line (start -.4024 -1.9939) (end -.0976 -1.9939) (layer Dwgs.User) (width .1524))
  (fp_line (start -.0976 -1.9939) (end -.0976 -1.9939) (layer Dwgs.User) (width .1524))
  (fp_line (start -.0976 -1.9939) (end -.4024 -1.9939) (layer Dwgs.User) (width .1524))
  (fp_line (start -.4024 -1.9939) (end -.4024 -1.9939) (layer Dwgs.User) (width .1524))
  (fp_line (start -.9024 -1.9939) (end -.5976 -1.9939) (layer Dwgs.User) (width .1524))
  (fp_line (start -.5976 -1.9939) (end -.5976 -1.9939) (layer Dwgs.User) (width .1524))
  (fp_line (start -.5976 -1.9939) (end -.9024 -1.9939) (layer Dwgs.User) (width .1524))
  (fp_line (start -.9024 -1.9939) (end -.9024 -1.9939) (layer Dwgs.User) (width .1524))
  (fp_line (start -1.4024 -1.9939) (end -1.0976 -1.9939) (layer Dwgs.User) (width .1524))
  (fp_line (start -1.0976 -1.9939) (end -1.0976 -1.9939) (layer Dwgs.User) (width .1524))
  (fp_line (start -1.0976 -1.9939) (end -1.4024 -1.9939) (layer Dwgs.User) (width .1524))
  (fp_line (start -1.4024 -1.9939) (end -1.4024 -1.9939) (layer Dwgs.User) (width .1524))
  (fp_line (start -1.9939 -1.0976) (end -1.9939 -1.4024) (layer Dwgs.User) (width .1524))
  (fp_line (start -1.9939 -1.4024) (end -1.9939 -1.4024) (layer Dwgs.User) (width .1524))
  (fp_line (start -1.9939 -1.4024) (end -1.9939 -1.0976) (layer Dwgs.User) (width .1524))
  (fp_line (start -1.9939 -1.0976) (end -1.9939 -1.0976) (layer Dwgs.User) (width .1524))
  (fp_line (start -1.9939 -.5976) (end -1.9939 -.9024) (layer Dwgs.User) (width .1524))
  (fp_line (start -1.9939 -.9024) (end -1.9939 -.9024) (layer Dwgs.User) (width .1524))
  (fp_line (start -1.9939 -.9024) (end -1.9939 -.5976) (layer Dwgs.User) (width .1524))
  (fp_line (start -1.9939 -.5976) (end -1.9939 -.5976) (layer Dwgs.User) (width .1524))
  (fp_line (start -1.9939 -.0976) (end -1.9939 -.4024) (layer Dwgs.User) (width .1524))
  (fp_line (start -1.9939 -.4024) (end -1.9939 -.4024) (layer Dwgs.User) (width .1524))
  (fp_line (start -1.9939 -.4024) (end -1.9939 -.0976) (layer Dwgs.User) (width .1524))
  (fp_line (start -1.9939 -.0976) (end -1.9939 -.0976) (layer Dwgs.User) (width .1524))
  (fp_line (start -1.9939 .4024) (end -1.9939 .0976) (layer Dwgs.User) (width .1524))
  (fp_line (start -1.9939 .0976) (end -1.9939 .0976) (layer Dwgs.User) (width .1524))
  (fp_line (start -1.9939 .0976) (end -1.9939 .4024) (layer Dwgs.User) (width .1524))
  (fp_line (start -1.9939 .4024) (end -1.9939 .4024) (layer Dwgs.User) (width .1524))
  (fp_line (start -1.9939 .9024) (end -1.9939 .5976) (layer Dwgs.User) (width .1524))
  (fp_line (start -1.9939 .5976) (end -1.9939 .5976) (layer Dwgs.User) (width .1524))
  (fp_line (start -1.9939 .5976) (end -1.9939 .9024) (layer Dwgs.User) (width .1524))
  (fp_line (start -1.9939 .9024) (end -1.9939 .9024) (layer Dwgs.User) (width .1524))
  (fp_line (start -1.9939 1.4024) (end -1.9939 1.0976) (layer Dwgs.User) (width .1524))
  (fp_line (start -1.9939 1.0976) (end -1.9939 1.0976) (layer Dwgs.User) (width .1524))
  (fp_line (start -1.9939 1.0976) (end -1.9939 1.4024) (layer Dwgs.User) (width .1524))
  (fp_line (start -1.9939 1.4024) (end -1.9939 1.4024) (layer Dwgs.User) (width .1524))
  (fp_line (start -1.0976 1.9939) (end -1.4024 1.9939) (layer Dwgs.User) (width .1524))
  (fp_line (start -1.4024 1.9939) (end -1.4024 1.9939) (layer Dwgs.User) (width .1524))
  (fp_line (start -1.4024 1.9939) (end -1.0976 1.9939) (layer Dwgs.User) (width .1524))
  (fp_line (start -1.0976 1.9939) (end -1.0976 1.9939) (layer Dwgs.User) (width .1524))
  (fp_line (start -.5976 1.9939) (end -.9024 1.9939) (layer Dwgs.User) (width .1524))
  (fp_line (start -.9024 1.9939) (end -.9024 1.9939) (layer Dwgs.User) (width .1524))
  (fp_line (start -.9024 1.9939) (end -.5976 1.9939) (layer Dwgs.User) (width .1524))
  (fp_line (start -.5976 1.9939) (end -.5976 1.9939) (layer Dwgs.User) (width .1524))
  (fp_line (start -.0976 1.9939) (end -.4024 1.9939) (layer Dwgs.User) (width .1524))
  (fp_line (start -.4024 1.9939) (end -.4024 1.9939) (layer Dwgs.User) (width .1524))
  (fp_line (start -.4024 1.9939) (end -.0976 1.9939) (layer Dwgs.User) (width .1524))
  (fp_line (start -.0976 1.9939) (end -.0976 1.9939) (layer Dwgs.User) (width .1524))
  (fp_line (start .4024 1.9939) (end .0976 1.9939) (layer Dwgs.User) (width .1524))
  (fp_line (start .0976 1.9939) (end .0976 1.9939) (layer Dwgs.User) (width .1524))
  (fp_line (start .0976 1.9939) (end .4024 1.9939) (layer Dwgs.User) (width .1524))
  (fp_line (start .4024 1.9939) (end .4024 1.9939) (layer Dwgs.User) (width .1524))
  (fp_line (start .9024 1.9939) (end .5976 1.9939) (layer Dwgs.User) (width .1524))
  (fp_line (start .5976 1.9939) (end .5976 1.9939) (layer Dwgs.User) (width .1524))
  (fp_line (start .5976 1.9939) (end .9024 1.9939) (layer Dwgs.User) (width .1524))
  (fp_line (start .9024 1.9939) (end .9024 1.9939) (layer Dwgs.User) (width .1524))
  (fp_line (start 1.4024 1.9939) (end 1.0976 1.9939) (layer Dwgs.User) (width .1524))
  (fp_line (start 1.0976 1.9939) (end 1.0976 1.9939) (layer Dwgs.User) (width .1524))
  (fp_line (start 1.0976 1.9939) (end 1.4024 1.9939) (layer Dwgs.User) (width .1524))
  (fp_line (start 1.4024 1.9939) (end 1.4024 1.9939) (layer Dwgs.User) (width .1524))
  (fp_line (start 1.9939 1.0976) (end 1.9939 1.4024) (layer Dwgs.User) (width .1524))
  (fp_line (start 1.9939 1.4024) (end 1.9939 1.4024) (layer Dwgs.User) (width .1524))
  (fp_line (start 1.9939 1.4024) (end 1.9939 1.0976) (layer Dwgs.User) (width .1524))
  (fp_line (start 1.9939 1.0976) (end 1.9939 1.0976) (layer Dwgs.User) (width .1524))
  (fp_line (start 1.9939 .5976) (end 1.9939 .9024) (layer Dwgs.User) (width .1524))
  (fp_line (start 1.9939 .9024) (end 1.9939 .9024) (layer Dwgs.User) (width .1524))
  (fp_line (start 1.9939 .9024) (end 1.9939 .5976) (layer Dwgs.User) (width .1524))
  (fp_line (start 1.9939 .5976) (end 1.9939 .5976) (layer Dwgs.User) (width .1524))
  (fp_line (start 1.9939 .0976) (end 1.9939 .4024) (layer Dwgs.User) (width .1524))
  (fp_line (start 1.9939 .4024) (end 1.9939 .4024) (layer Dwgs.User) (width .1524))
  (fp_line (start 1.9939 .4024) (end 1.9939 .0976) (layer Dwgs.User) (width .1524))
  (fp_line (start 1.9939 .0976) (end 1.9939 .0976) (layer Dwgs.User) (width .1524))
  (fp_line (start 1.9939 -.4024) (end 1.9939 -.0976) (layer Dwgs.User) (width .1524))
  (fp_line (start 1.9939 -.0976) (end 1.9939 -.0976) (layer Dwgs.User) (width .1524))
  (fp_line (start 1.9939 -.0976) (end 1.9939 -.4024) (layer Dwgs.User) (width .1524))
  (fp_line (start 1.9939 -.4024) (end 1.9939 -.4024) (layer Dwgs.User) (width .1524))
  (fp_line (start 1.9939 -.9024) (end 1.9939 -.5976) (layer Dwgs.User) (width .1524))
  (fp_line (start 1.9939 -.5976) (end 1.9939 -.5976) (layer Dwgs.User) (width .1524))
  (fp_line (start 1.9939 -.5976) (end 1.9939 -.9024) (layer Dwgs.User) (width .1524))
  (fp_line (start 1.9939 -.9024) (end 1.9939 -.9024) (layer Dwgs.User) (width .1524))
  (fp_line (start 1.9939 -1.4024) (end 1.9939 -1.0976) (layer Dwgs.User) (width .1524))
  (fp_line (start 1.9939 -1.0976) (end 1.9939 -1.0976) (layer Dwgs.User) (width .1524))
  (fp_line (start 1.9939 -1.0976) (end 1.9939 -1.4024) (layer Dwgs.User) (width .1524))
  (fp_line (start 1.9939 -1.4024) (end 1.9939 -1.4024) (layer Dwgs.User) (width .1524))
  (fp_line (start -1.9939 1.9939) (end -1.73514 1.9939) (layer F.SilkS) (width .1524))
  (fp_line (start 1.9939 1.9939) (end 1.9939 1.73514) (layer F.SilkS) (width .1524))
  (fp_line (start 1.9939 -1.9939) (end 1.73514 -1.9939) (layer F.SilkS) (width .1524))
  (fp_line (start -1.9939 -1.9939) (end -1.9939 -1.73514) (layer F.SilkS) (width .1524))
  (fp_line (start -1.9939 1.73514) (end -1.9939 1.9939) (layer F.SilkS) (width .1524))
  (fp_line (start -1.9939 1.9939) (end 1.9939 1.9939) (layer Dwgs.User) (width .1524))
  (fp_line (start 1.9939 1.9939) (end 1.9939 1.9939) (layer Dwgs.User) (width .1524))
  (fp_line (start 1.9939 1.9939) (end 1.9939 -1.9939) (layer Dwgs.User) (width .1524))
  (fp_line (start 1.9939 -1.9939) (end 1.9939 -1.9939) (layer Dwgs.User) (width .1524))
  (fp_line (start 1.9939 -1.9939) (end -1.9939 -1.9939) (layer Dwgs.User) (width .1524))
  (fp_line (start -1.9939 -1.9939) (end -1.9939 -1.9939) (layer Dwgs.User) (width .1524))
  (fp_line (start -1.9939 -1.9939) (end -1.9939 1.9939) (layer Dwgs.User) (width .1524))
  (fp_line (start -1.9939 1.9939) (end -1.9939 1.9939) (layer Dwgs.User) (width .1524))
  (fp_line (start 1.73514 1.9939) (end 1.9939 1.9939) (layer F.SilkS) (width .1524))
  (fp_line (start 1.9939 -1.73514) (end 1.9939 -1.9939) (layer F.SilkS) (width .1524))
  (pad 1 smd rect (at -1.8923 -1.25 90) (size .3048 .8128) (layers F.Cu F.Paste F.Mask))
  (pad 2 smd rect (at -1.8923 -.750001 90) (size .3048 .8128) (layers F.Cu F.Paste F.Mask))
  (pad 3 smd rect (at -1.8923 -.25 90) (size .3048 .8128) (layers F.Cu F.Paste F.Mask))
  (pad 4 smd rect (at -1.8923 .25 90) (size .3048 .8128) (layers F.Cu F.Paste F.Mask))
  (pad 5 smd rect (at -1.8923 .750001 90) (size .3048 .8128) (layers F.Cu F.Paste F.Mask))
  (pad 6 smd rect (at -1.8923 1.25 90) (size .3048 .8128) (layers F.Cu F.Paste F.Mask))
  (pad 7 smd rect (at -1.25 1.8923) (size .3048 .8128) (layers F.Cu F.Paste F.Mask))
  (pad 8 smd rect (at -.750001 1.8923) (size .3048 .8128) (layers F.Cu F.Paste F.Mask))
  (pad 9 smd rect (at -.25 1.8923) (size .3048 .8128) (layers F.Cu F.Paste F.Mask))
  (pad 10 smd rect (at .25 1.8923) (size .3048 .8128) (layers F.Cu F.Paste F.Mask))
  (pad 11 smd rect (at .750001 1.8923) (size .3048 .8128) (layers F.Cu F.Paste F.Mask))
  (pad 12 smd rect (at 1.25 1.8923) (size .3048 .8128) (layers F.Cu F.Paste F.Mask))
  (pad 13 smd rect (at 1.8923 1.25 90) (size .3048 .8128) (layers F.Cu F.Paste F.Mask))
  (pad 14 smd rect (at 1.8923 .750001 90) (size .3048 .8128) (layers F.Cu F.Paste F.Mask))
  (pad 15 smd rect (at 1.8923 .25 90) (size .3048 .8128) (layers F.Cu F.Paste F.Mask))
  (pad 16 smd rect (at 1.8923 -.25 90) (size .3048 .8128) (layers F.Cu F.Paste F.Mask))
  (pad 17 smd rect (at 1.8923 -.750001 90) (size .3048 .8128) (layers F.Cu F.Paste F.Mask))
  (pad 18 smd rect (at 1.8923 -1.25 90) (size .3048 .8128) (layers F.Cu F.Paste F.Mask))
  (pad 19 smd rect (at 1.25 -1.8923) (size .3048 .8128) (layers F.Cu F.Paste F.Mask))
  (pad 20 smd rect (at .750001 -1.8923) (size .3048 .8128) (layers F.Cu F.Paste F.Mask))
  (pad 21 smd rect (at .25 -1.8923) (size .3048 .8128) (layers F.Cu F.Paste F.Mask))
  (pad 22 smd rect (at -.25 -1.8923) (size .3048 .8128) (layers F.Cu F.Paste F.Mask))
  (pad 23 smd rect (at -.750001 -1.8923) (size .3048 .8128) (layers F.Cu F.Paste F.Mask))
  (pad 24 smd rect (at -1.25 -1.8923) (size .3048 .8128) (layers F.Cu F.Paste F.Mask))
  (pad 25 smd rect (at 0 0) (size 2.6416 2.6416) (layers F.Cu F.Paste F.Mask))
)
