(module Buck_Converter (layer F.Cu) (tedit 5FDDDCA7)
  (fp_text reference REF** (at 21.844 11.43) (layer F.SilkS)
    (effects (font (size 1 1) (thickness 0.15)))
  )
  (fp_text value Buck_Converter (at 21.59 9.144) (layer F.Fab)
    (effects (font (size 1 1) (thickness 0.15)))
  )
  (fp_line (start -2.032 20.32) (end 43.18 20.32) (layer F.SilkS) (width 0.15))
  (fp_line (start 43.18 20.32) (end 43.18 -2.54) (layer F.SilkS) (width 0.15))
  (fp_line (start 43.18 -2.54) (end -2.286 -2.54) (layer F.SilkS) (width 0.15))
  (fp_line (start -2.286 -2.54) (end -2.54 -2.54) (layer F.SilkS) (width 0.15))
  (fp_line (start -2.54 -2.54) (end -2.54 20.32) (layer F.SilkS) (width 0.15))
  (fp_line (start -2.54 20.32) (end -2.032 20.32) (layer F.SilkS) (width 0.15))
  (fp_text user IN+ (at 3.302 0) (layer F.SilkS)
    (effects (font (size 1 1) (thickness 0.15)))
  )
  (fp_text user IN- (at 3.048 17.78) (layer F.SilkS)
    (effects (font (size 1 1) (thickness 0.15)))
  )
  (fp_text user OUT+ (at 36.322 0) (layer F.SilkS)
    (effects (font (size 1 1) (thickness 0.15)))
  )
  (fp_text user OUT- (at 36.576 17.78) (layer F.SilkS)
    (effects (font (size 1 1) (thickness 0.15)))
  )
  (pad 1 thru_hole circle (at 0 0) (size 2.1 2.1) (drill 1) (layers *.Cu *.Mask))
  (pad 2 thru_hole circle (at 0 17.78) (size 2.1 2.1) (drill 1) (layers *.Cu *.Mask))
  (pad 3 thru_hole circle (at 40.64 0) (size 2.1 2.1) (drill 1) (layers *.Cu *.Mask))
  (pad 4 thru_hole circle (at 40.64 17.78) (size 2.1 2.1) (drill 1) (layers *.Cu *.Mask))
)
