(module C_Disc_P19.304 (layer F.Cu) (tedit 5810D9F9)
  (descr "Film Capacitor Length 27mm x Width 9mm x Heigth 17mm, Pitch 23mm")
  (tags "Kemet R.46 Capacitor")
  (fp_text reference C8 (at 12.446 -1.016) (layer F.SilkS)
    (effects (font (size 1 1) (thickness 0.15)))
  )
  (fp_text value 10nF (at 8.636 -1.016) (layer F.Fab)
    (effects (font (size 1 1) (thickness 0.15)))
  )
  (fp_line (start 1.8542 0.3302) (end 17.9578 0.3302) (layer F.SilkS) (width 0.15))
  (fp_line (start 1.8288 -0.2794) (end 17.9324 -0.2794) (layer F.SilkS) (width 0.15))
  (pad 2 thru_hole circle (at 19.304 0) (size 2 2) (drill 0.7) (layers *.Cu *.Mask F.SilkS))
  (pad 1 thru_hole circle (at 0 0) (size 2 2) (drill 0.7) (layers *.Cu *.Mask F.SilkS))
  (model Capacitors_ThroughHole.3dshapes/C_Rect_L27_W9_H17_P23.wrl
    (at (xyz 0.452756 0 0))
    (scale (xyz 4 4 4))
    (rotate (xyz 0 0 0))
  )
)
