(module SPDT_Tayda_P4.7mm (layer F.Cu) (tedit 603D6483)
  (fp_text reference REF** (at 0 7) (layer F.SilkS)
    (effects (font (size 1 1) (thickness 0.15)))
  )
  (fp_text value SPDT_Tayda_P4.7mm (at 0 5.3) (layer F.Fab)
    (effects (font (size 1 1) (thickness 0.15)))
  )
  (fp_circle (center 0 0.01) (end 3 -0.03) (layer Dwgs.User) (width 0.12))
  (fp_poly (pts (xy 6.5 4) (xy -6.5 4) (xy -6.5 -4) (xy 6.5 -4)) (layer F.Fab) (width 0.1))
  (fp_text user C (at -5 -5) (layer F.SilkS)
    (effects (font (size 1 1) (thickness 0.15)))
  )
  (fp_text user NO (at 0 -5) (layer F.SilkS)
    (effects (font (size 1 1) (thickness 0.15)))
  )
  (fp_text user NC (at 4.5 -5) (layer F.SilkS)
    (effects (font (size 1 1) (thickness 0.15)))
  )
  (fp_line (start -6.5 4) (end -6.5 -4) (layer F.SilkS) (width 0.15))
  (fp_line (start -6.5 -4) (end 6.5 -4) (layer F.SilkS) (width 0.15))
  (fp_line (start 6.5 -4) (end 6.5 4) (layer F.SilkS) (width 0.15))
  (fp_line (start 6.5 4) (end -6.5 4) (layer F.SilkS) (width 0.15))
  (pad NO thru_hole oval (at 0 0) (size 3 4) (drill oval 1 2.2) (layers *.Cu *.Mask))
  (pad C thru_hole oval (at -4.7 0) (size 3 4) (drill oval 1 2.2) (layers *.Cu *.Mask))
  (pad NC thru_hole oval (at 4.7 0) (size 3 4) (drill oval 1 2.2) (layers *.Cu *.Mask))
)
